{
  "fromHash": "21ef58374770b571c235b4e414f573ff5cddcc30",
  "toHash": "47df7600de98d901ccf3aa390c358731055a4a42",
  "values": [
    {
      "contentId": "31ac403c23898fe4b0583b3246f2de46322e341a",
      "fromContentId": "d8c4b86e87c1ed2ba11269f8d1df7278050d340c",
      "path": {
        "components": [
          "plugins",
          "git",
          "src",
          "test",
          "java",
          "com",
          "atlassian",
          "stash",
          "internal",
          "scm",
          "git",
          "DefaultGitCommandFactoryTest.java"
        ],
        "parent": "plugins/git/src/test/java/com/atlassian/stash/internal/scm/git",
        "name": "DefaultGitCommandFactoryTest.java",
        "extension": "java",
        "toString": "plugins/git/src/test/java/com/atlassian/stash/internal/scm/git/DefaultGitCommandFactoryTest.java"
      },
      "executable": false,
      "percentUnchanged": -1,
      "type": "MODIFY",
      "nodeType": "FILE",
      "srcExecutable": false,
      "links": {
        "self": [
          null
        ]
      }
    },
    {
      "contentId": "15f4445ec5ef688d24c1344dec86bb7b6775b940",
      "fromContentId": "4f79c8d0cadc382b81729369bfe1fc8b2439fa07",
      "path": {
        "components": [
          "plugins",
          "git",
          "src",
          "test",
          "java",
          "com",
          "atlassian",
          "stash",
          "internal",
          "scm",
          "git",
          "DefaultGitCompareCommandFactoryTest.java"
        ],
        "parent": "plugins/git/src/test/java/com/atlassian/stash/internal/scm/git",
        "name": "DefaultGitCompareCommandFactoryTest.java",
        "extension": "java",
        "toString": "plugins/git/src/test/java/com/atlassian/stash/internal/scm/git/DefaultGitCompareCommandFactoryTest.java"
      },
      "executable": false,
      "percentUnchanged": -1,
      "type": "MODIFY",
      "nodeType": "FILE",
      "srcExecutable": false,
      "links": {
        "self": [
          null
        ]
      },
      "properties": {
        "activeComments": 3,
        "orphanedComments": 1
      }
    },
    {
      "contentId": "2e5904db58d70c77da952252ec45d09b0ca57a1d",
      "fromContentId": "cd2e73016af1d8a10c021c40e890667bac607a5d",
      "path": {
        "components": [
          "plugins",
          "git",
          "src",
          "test",
          "java",
          "com",
          "atlassian",
          "stash",
          "internal",
          "scm",
          "git",
          "DefaultGitMirrorCommandFactoryTest.java"
        ],
        "parent": "plugins/git/src/test/java/com/atlassian/stash/internal/scm/git",
        "name": "DefaultGitMirrorCommandFactoryTest.java",
        "extension": "java",
        "toString": "plugins/git/src/test/java/com/atlassian/stash/internal/scm/git/DefaultGitMirrorCommandFactoryTest.java"
      },
      "executable": false,
      "percentUnchanged": -1,
      "type": "MODIFY",
      "nodeType": "FILE",
      "srcExecutable": false,
      "links": {
        "self": [
          null
        ]
      }
    },
    {
      "contentId": "77e590640bf687194cf54b16eb2b13f62931d548",
      "fromContentId": "6a02d739803f984945051f396ba27873d54d0b09",
      "path": {
        "components": [
          "plugins",
          "git",
          "src",
          "test",
          "java",
          "com",
          "atlassian",
          "stash",
          "internal",
          "scm",
          "git",
          "DefaultGitPullRequestCommandFactoryTest.java"
        ],
        "parent": "plugins/git/src/test/java/com/atlassian/stash/internal/scm/git",
        "name": "DefaultGitPullRequestCommandFactoryTest.java",
        "extension": "java",
        "toString": "plugins/git/src/test/java/com/atlassian/stash/internal/scm/git/DefaultGitPullRequestCommandFactoryTest.java"
      },
      "executable": false,
      "percentUnchanged": -1,
      "type": "MODIFY",
      "nodeType": "FILE",
      "srcExecutable": false,
      "links": {
        "self": [
          null
        ]
      }
    },
    {
      "contentId": "8cc4a041479dbde8580508dbc1b1a84d3a5ab8e7",
      "fromContentId": "7f1fe6ad6e92fcf3e4b67bd4d4e43f6671194776",
      "path": {
        "components": [
          "plugins",
          "git",
          "src",
          "test",
          "java",
          "com",
          "atlassian",
          "stash",
          "internal",
          "scm",
          "git",
          "GitGarbageTruckTest.java"
        ],
        "parent": "plugins/git/src/test/java/com/atlassian/stash/internal/scm/git",
        "name": "GitGarbageTruckTest.java",
        "extension": "java",
        "toString": "plugins/git/src/test/java/com/atlassian/stash/internal/scm/git/GitGarbageTruckTest.java"
      },
      "executable": false,
      "percentUnchanged": -1,
      "type": "MODIFY",
      "nodeType": "FILE",
      "srcExecutable": false,
      "links": {
        "self": [
          null
        ]
      },
      "properties": {
        "activeComments": 0,
        "orphanedComments": 3
      }
    },
    {
      "contentId": "8c7fe5fe342cfca55d81203a45e8ffa24817106a",
      "fromContentId": "1415d2e4127d229e797da28f91eaa1df93737410",
      "path": {
        "components": [
          "plugins",
          "git",
          "src",
          "test",
          "java",
          "com",
          "atlassian",
          "stash",
          "internal",
          "scm",
          "git",
          "RawGitAgentTest.java"
        ],
        "parent": "plugins/git/src/test/java/com/atlassian/stash/internal/scm/git",
        "name": "RawGitAgentTest.java",
        "extension": "java",
        "toString": "plugins/git/src/test/java/com/atlassian/stash/internal/scm/git/RawGitAgentTest.java"
      },
      "executable": false,
      "percentUnchanged": -1,
      "type": "MODIFY",
      "nodeType": "FILE",
      "srcExecutable": false,
      "links": {
        "self": [
          null
        ]
      }
    },
    {
      "contentId": "5ee959673a4e9722c7bb1e351600ad3dfdd45ae6",
      "fromContentId": "f5f94d8fd6a994ab436fa1ca754e42eb38e79418",
      "path": {
        "components": [
          "plugins",
          "git",
          "src",
          "test",
          "java",
          "com",
          "atlassian",
          "stash",
          "internal",
          "scm",
          "git",
          "pull",
          "task",
          "PullRequestTaskListenerTest.java"
        ],
        "parent": "plugins/git/src/test/java/com/atlassian/stash/internal/scm/git/pull/task",
        "name": "PullRequestTaskListenerTest.java",
        "extension": "java",
        "toString": "plugins/git/src/test/java/com/atlassian/stash/internal/scm/git/pull/task/PullRequestTaskListenerTest.java"
      },
      "executable": false,
      "percentUnchanged": -1,
      "type": "MODIFY",
      "nodeType": "FILE",
      "srcExecutable": false,
      "links": {
        "self": [
          null
        ]
      },
      "properties": {
        "activeComments": 1,
        "orphanedComments": 0
      }
    }
  ],
  "size": 7,
  "isLastPage": true,
  "start": 0,
  "limit": 25,
  "nextPageStart": null
}